1 10 20
100 200 125
201 210 89
900 1000 174
1 1 1
400 600 142
700 1200 182
1 2 2
5 20 21
2 2 2
64 64 7
11 11 15
1 2000 182
10 10 7
130 130 29
120 125 109
350 360 126
300 600 144
4 5 6
15 15 18
30 31 107
56 58 33
70 71 103
180 183 94
146 174 125
300 320 131
317 400 144
800 820 135
17 45 112
8 800 171
6 700 145
45 67 113
27 30 112
12 34 112
6 666 145
69 420 144
10 10 7
13 13 10
90 98 119
16 17 13
1 2 2
2 3 8
3 4 8
4 5 6
6 7 17
8 9 20
10 11 15
11 12 15
13 14 18
5 8 17
7 8 17
15 16 18
16 17 13
18 19 21
20 21 8
22 23 16
24 25 24
26 27 112
28 29 19
31 34 107
90 91 93
99 100 26
156 187 125
96 99 119
97 100 119
67 45 113
4 10 20
3 7 17
45 60 113
15 30 112
124 132 122
17 19 21
90 400 144
45 65 113
58 90 116
100 1000 179
99 999 179
56 560 144
10 100 119
45 49 105
34 56 113
35 50 110
300 400 144
600 703 171
34 59 113
57 66 108
59 79 116
60 65 108
78 89 111
34 60 113
20 50 112
33 66 113
10 2 20
5 3 8
4 1 8
9 7 20
8 6 17
11 9 20
43 13 112
35 20 112
22 21 16
