1 10 20
100 200 125
201 210 89
900 1000 174
1 1 1
9999 9999 92
1 999999 525
999999 1 525
999999 999999 259
1 9999 262
9999 1 262
1 2 2
2 1 2
10 1 20
9999 9998 92
9998 9999 92
10 10 7
210 201 89
1000 900 174
1000 2000 182
999 2001 182
2001 999 182
9051 5176 262
3523 7721 262
5323 960 238
3818 9835 262
68 6059 238
8335 249 262
1379 3712 238
8910 9284 260
7305 5552 262
18 7095 262
4512 948 238
9611 1696 262
4482 1675 238
8404 7270 252
9473 4184 262
7076 755 262
9549 7329 260
6352 1332 262
7497 6659 257
9425 2809 262
5508 8959 262
7111 7682 239
970 9724 262
1535 5810 238
6367 1173 262
4223 4643 215
1271 9005 262
4656 943 238
2585 4647 238
4655 2789 238
8100 4694 262
2891 5760 238
301 6978 262
9751 7822 260
8194 8904 234
12 3724 238
1222 3585 217
8213 6028 262
6425 6070 262
3244 7640 262
5148 808 238
1448 4186 238
717 1363 182
4281 707 238
566 136 144
6090 9353 262
2904 1789 209
2815 3468 217
2948 4441 238
3117 519 217
9761 9472 198
4919 2140 238
8428 7175 252
2074 1600 180
2795 9782 262
883 9707 262
9841 1223 262
6290 2821 262
5318 9565 262
2462 8130 262
8873 2799 262
5052 6825 262
5779 1854 238
35 4546 238
2728 8850 262
7008 6499 257
5833 7972 262
107 8760 262
699 2750 209
7723 1236 262
4800 4385 197
1333 6890 262
8600 1272 262
5210 9061 262
1333 9247 262
8597 4675 262
3899 8007 262
2319 1185 183
4960 3419 238
1017 7080 262
3382 6500 262
2526 8953 262
7981 4381 262
4407 5642 236
5627 5091 236
9879 4032 262
4838 2144 238
8508 7214 252
7973 3287 262
6285 7151 257
6334 9368 260
5550 8049 262
2754 8495 262
7970 6883 257
5768 9648 262
3496 7846 262
7678 873 262
7556 2353 262
4022 5166 215
9939 2058 262
